﻿{
  "$schema": "https://json.schemastore.org/launchsettings.json",
  "profiles": {
    "ProductsAPI": {
      "commandName": "Project",
      "dotnetRunMessages": true,
      "launchBrowser": true,
      "launchUrl": "swagger",
      "applicationUrl": "http://localhost:7242",
      "environmentVariables": {
        "ASPNETCORE_ENVIRONMENT": "Development",
        "POSTGRES_HOST": "127.0.0.1",
        "POSTGRES_PORT": "5432",
        "POSTGRES_USER": "postgres",
        "POSTGRES_DB": "postgres",
        "POSTGRES_PASSWORD": "postgres"
      }
    }
  }
}